Node: 3; Time: +0.00600196699999999998s, Local time: +0.00600196699999999998s, AODVQ Routing tables 	RouteInput

AODVQ Routing table
Destination	Gateway		Interface	Flag	Expire		Hops		L-summary
127.0.0.1	127.0.0.1	127.0.0.1	UP	9223372036.85 	1		100

Node: 3; Time: +0.01s, Local time: +0.01s, AODVQ Routing tables 	RecvAodvq

AODVQ Routing table
Destination	Gateway		Interface	Flag	Expire		Hops		L-summary
11.0.3.1	11.0.3.1	11.0.3.2	UP	3.00          	1		43430400
127.0.0.1	127.0.0.1	127.0.0.1	UP	9223372036.85 	1		100

Node: 3; Time: +0.01s, Local time: +0.01s, AODVQ Routing tables 	RouteInput

AODVQ Routing table
Destination	Gateway		Interface	Flag	Expire		Hops		L-summary
11.0.3.1	11.0.3.1	11.0.3.2	UP	3.00          	1		43430400
127.0.0.1	127.0.0.1	127.0.0.1	UP	9223372036.85 	1		100

Node: 3; Time: +0.01s, Local time: +0.01s, AODVQ Routing tables 	RecvAodvq

AODVQ Routing table
Destination	Gateway		Interface	Flag	Expire		Hops		L-summary
11.0.3.1	11.0.3.1	11.0.3.2	UP	3.00          	1		43430400
11.0.5.2	11.0.5.2	11.0.5.1	UP	3.00          	1		10857600
127.0.0.1	127.0.0.1	127.0.0.1	UP	9223372036.85 	1		100

Node: 3; Time: +0.01s, Local time: +0.01s, AODVQ Routing tables 	RouteInput

AODVQ Routing table
Destination	Gateway		Interface	Flag	Expire		Hops		L-summary
11.0.3.1	11.0.3.1	11.0.3.2	UP	3.00          	1		43430400
11.0.5.2	11.0.5.2	11.0.5.1	UP	3.00          	1		10857600
127.0.0.1	127.0.0.1	127.0.0.1	UP	9223372036.84 	1		100

Node: 3; Time: +0.01s, Local time: +0.01s, AODVQ Routing tables 	RecvAodvq

AODVQ Routing table
Destination	Gateway		Interface	Flag	Expire		Hops		L-summary
11.0.3.1	11.0.3.1	11.0.3.2	UP	3.00          	1		43430400
11.0.5.2	11.0.5.2	11.0.5.1	UP	3.00          	1		10857600
127.0.0.1	127.0.0.1	127.0.0.1	UP	9223372036.84 	1		100

Node: 3; Time: +1.01s, Local time: +1.01s, AODVQ Routing tables 	RouteInput

AODVQ Routing table
Destination	Gateway		Interface	Flag	Expire		Hops		L-summary
11.0.3.1	11.0.3.1	11.0.3.2	UP	2.00          	1		43430400
11.0.5.2	11.0.5.2	11.0.5.1	UP	2.00          	1		10857600
127.0.0.1	127.0.0.1	127.0.0.1	UP	9223372035.85 	1		100

Node: 3; Time: +1.01s, Local time: +1.01s, AODVQ Routing tables 	RecvAodvq

AODVQ Routing table
Destination	Gateway		Interface	Flag	Expire		Hops		L-summary
11.0.3.1	11.0.3.1	11.0.3.2	UP	3.00          	1		43427637
11.0.5.2	11.0.5.2	11.0.5.1	UP	2.00          	1		10857600
127.0.0.1	127.0.0.1	127.0.0.1	UP	9223372035.85 	1		100

Node: 3; Time: +1.01s, Local time: +1.01s, AODVQ Routing tables 	RouteInput

AODVQ Routing table
Destination	Gateway		Interface	Flag	Expire		Hops		L-summary
11.0.3.1	11.0.3.1	11.0.3.2	UP	3.00          	1		43427637
11.0.5.2	11.0.5.2	11.0.5.1	UP	2.00          	1		10857600
127.0.0.1	127.0.0.1	127.0.0.1	UP	9223372035.84 	1		100

Node: 3; Time: +1.01s, Local time: +1.01s, AODVQ Routing tables 	RecvAodvq

AODVQ Routing table
Destination	Gateway		Interface	Flag	Expire		Hops		L-summary
11.0.3.1	11.0.3.1	11.0.3.2	UP	3.00          	1		43427637
11.0.5.2	11.0.5.2	11.0.5.1	UP	3.00          	1		10852821
127.0.0.1	127.0.0.1	127.0.0.1	UP	9223372035.84 	1		100

Node: 3; Time: +2.01s, Local time: +2.01s, AODVQ Routing tables 	RouteInput

AODVQ Routing table
Destination	Gateway		Interface	Flag	Expire		Hops		L-summary
11.0.3.1	11.0.3.1	11.0.3.2	UP	2.00          	1		43427637
11.0.5.2	11.0.5.2	11.0.5.1	UP	2.00          	1		10852821
127.0.0.1	127.0.0.1	127.0.0.1	UP	9223372034.85 	1		100

Node: 3; Time: +2.01s, Local time: +2.01s, AODVQ Routing tables 	RecvAodvq

AODVQ Routing table
Destination	Gateway		Interface	Flag	Expire		Hops		L-summary
11.0.3.1	11.0.3.1	11.0.3.2	UP	2.00          	1		43427637
11.0.5.2	11.0.5.2	11.0.5.1	UP	3.00          	1		10850453
127.0.0.1	127.0.0.1	127.0.0.1	UP	9223372034.85 	1		100

Node: 3; Time: +2.02s, Local time: +2.02s, AODVQ Routing tables 	RouteInput

AODVQ Routing table
Destination	Gateway		Interface	Flag	Expire		Hops		L-summary
11.0.3.1	11.0.3.1	11.0.3.2	UP	1.99          	1		43427637
11.0.5.2	11.0.5.2	11.0.5.1	UP	2.99          	1		10850453
127.0.0.1	127.0.0.1	127.0.0.1	UP	9223372034.84 	1		100

Node: 3; Time: +2.02s, Local time: +2.02s, AODVQ Routing tables 	RecvAodvq

AODVQ Routing table
Destination	Gateway		Interface	Flag	Expire		Hops		L-summary
11.0.3.1	11.0.3.1	11.0.3.2	UP	3.00          	1		43425664
11.0.5.2	11.0.5.2	11.0.5.1	UP	2.99          	1		10850453
127.0.0.1	127.0.0.1	127.0.0.1	UP	9223372034.84 	1		100

Node: 3; Time: +3.01s, Local time: +3.01s, AODVQ Routing tables 	RouteInput

AODVQ Routing table
Destination	Gateway		Interface	Flag	Expire		Hops		L-summary
11.0.3.1	11.0.3.1	11.0.3.2	UP	2.01          	1		43425664
11.0.5.2	11.0.5.2	11.0.5.1	UP	2.00          	1		10850453
127.0.0.1	127.0.0.1	127.0.0.1	UP	9223372033.85 	1		100

Node: 3; Time: +3.01s, Local time: +3.01s, AODVQ Routing tables 	RecvAodvq

AODVQ Routing table
Destination	Gateway		Interface	Flag	Expire		Hops		L-summary
11.0.3.1	11.0.3.1	11.0.3.2	UP	2.01          	1		43425664
11.0.5.2	11.0.5.2	11.0.5.1	UP	3.00          	1		10848085
127.0.0.1	127.0.0.1	127.0.0.1	UP	9223372033.85 	1		100

Node: 3; Time: +3.01s, Local time: +3.01s, AODVQ Routing tables 	RouteInput

AODVQ Routing table
Destination	Gateway		Interface	Flag	Expire		Hops		L-summary
11.0.3.1	11.0.3.1	11.0.3.2	UP	2.01          	1		43425664
11.0.5.2	11.0.5.2	11.0.5.1	UP	3.00          	1		10848085
127.0.0.1	127.0.0.1	127.0.0.1	UP	9223372033.85 	1		100

Node: 3; Time: +3.01s, Local time: +3.01s, AODVQ Routing tables 	RecvAodvq

AODVQ Routing table
Destination	Gateway		Interface	Flag	Expire		Hops		L-summary
11.0.3.1	11.0.3.1	11.0.3.2	UP	3.00          	1		43423296
11.0.5.2	11.0.5.2	11.0.5.1	UP	3.00          	1		10848085
127.0.0.1	127.0.0.1	127.0.0.1	UP	9223372033.85 	1		100

Node: 3; Time: +4.00s, Local time: +4.00s, AODVQ Routing tables 	RouteInput

AODVQ Routing table
Destination	Gateway		Interface	Flag	Expire		Hops		L-summary
11.0.3.1	11.0.3.1	11.0.3.2	UP	2.00          	1		43423296
11.0.5.2	11.0.5.2	11.0.5.1	UP	2.00          	1		10848085
127.0.0.1	127.0.0.1	127.0.0.1	UP	9223372032.85 	1		100

Node: 3; Time: +4.00s, Local time: +4.00s, AODVQ Routing tables 	RecvAodvq

AODVQ Routing table
Destination	Gateway		Interface	Flag	Expire		Hops		L-summary
11.0.3.1	11.0.3.1	11.0.3.2	UP	3.00          	1		43420533
11.0.5.2	11.0.5.2	11.0.5.1	UP	2.00          	1		10848085
127.0.0.1	127.0.0.1	127.0.0.1	UP	9223372032.85 	1		100

Node: 3; Time: +4.01s, Local time: +4.01s, AODVQ Routing tables 	RouteInput

AODVQ Routing table
Destination	Gateway		Interface	Flag	Expire		Hops		L-summary
11.0.3.1	11.0.3.1	11.0.3.2	UP	3.00          	1		43420533
11.0.5.2	11.0.5.2	11.0.5.1	UP	2.00          	1		10848085
127.0.0.1	127.0.0.1	127.0.0.1	UP	9223372032.84 	1		100

Node: 3; Time: +4.01s, Local time: +4.01s, AODVQ Routing tables 	RecvAodvq

AODVQ Routing table
Destination	Gateway		Interface	Flag	Expire		Hops		L-summary
11.0.3.1	11.0.3.1	11.0.3.2	UP	3.00          	1		43420533
11.0.5.2	11.0.5.2	11.0.5.1	UP	3.00          	1		10845717
127.0.0.1	127.0.0.1	127.0.0.1	UP	9223372032.84 	1		100

Node: 3; Time: +5.01s, Local time: +5.01s, AODVQ Routing tables 	RouteInput

AODVQ Routing table
Destination	Gateway		Interface	Flag	Expire		Hops		L-summary
11.0.3.1	11.0.3.1	11.0.3.2	UP	2.00          	1		43420533
11.0.5.2	11.0.5.2	11.0.5.1	UP	2.00          	1		10845717
127.0.0.1	127.0.0.1	127.0.0.1	UP	9223372031.85 	1		100

Node: 3; Time: +5.01s, Local time: +5.01s, AODVQ Routing tables 	RecvAodvq

AODVQ Routing table
Destination	Gateway		Interface	Flag	Expire		Hops		L-summary
11.0.3.1	11.0.3.1	11.0.3.2	UP	2.00          	1		43420533
11.0.5.2	11.0.5.2	11.0.5.1	UP	3.00          	1		10843349
127.0.0.1	127.0.0.1	127.0.0.1	UP	9223372031.85 	1		100

Node: 3; Time: +5.01s, Local time: +5.01s, AODVQ Routing tables 	RouteInput

AODVQ Routing table
Destination	Gateway		Interface	Flag	Expire		Hops		L-summary
11.0.3.1	11.0.3.1	11.0.3.2	UP	1.99          	1		43420533
11.0.5.2	11.0.5.2	11.0.5.1	UP	3.00          	1		10843349
127.0.0.1	127.0.0.1	127.0.0.1	UP	9223372031.84 	1		100

Node: 3; Time: +5.01s, Local time: +5.01s, AODVQ Routing tables 	RecvAodvq

AODVQ Routing table
Destination	Gateway		Interface	Flag	Expire		Hops		L-summary
11.0.3.1	11.0.3.1	11.0.3.2	UP	3.00          	1		43418560
11.0.5.2	11.0.5.2	11.0.5.1	UP	3.00          	1		10843349
127.0.0.1	127.0.0.1	127.0.0.1	UP	9223372031.84 	1		100

