Node: 6	 Time: 0	s 	NotifyAddAddress

DSDV Routing table
Destination		Gateway		Interface		HopCount		SeqNum		LifeTime		SettlingTime
127.0.0.1		127.0.0.1		127.0.0.1		0         	0         	-9223372036.855s		0.000s

Node: 6	 Time: 0.000	s 	NotifyInterfaceUp

DSDV Routing table
Destination		Gateway		Interface		HopCount		SeqNum		LifeTime		SettlingTime
127.0.0.1		127.0.0.1		127.0.0.1		0         	0         	-9223372036.855s		0.000s

Node: 6	 Time: 0.000	s 	SendPeriodicUpdate

DSDV Routing table
Destination		Gateway		Interface		HopCount		SeqNum		LifeTime		SettlingTime
10.1.8.255		10.1.8.255		10.1.8.2		0         	0         	-9223372036.855s		0.000s
127.0.0.1		127.0.0.1		127.0.0.1		0         	0         	-9223372036.855s		0.000s

Node: 6	 Time: 0.003	s 	SendTriggeredUpdate

DSDV Routing table
Destination		Gateway		Interface		HopCount		SeqNum		LifeTime		SettlingTime
10.1.5.2		10.1.8.1		10.1.8.2		1         	2         	0.001s		5.000s
10.1.6.2		10.1.8.1		10.1.8.2		1         	2         	0.001s		5.000s
10.1.7.2		10.1.8.1		10.1.8.2		1         	2         	0.001s		5.000s
10.1.8.1		10.1.8.1		10.1.8.2		1         	2         	0.001s		5.000s
10.1.8.255		10.1.8.255		10.1.8.2		0         	2         	-9223372036.852s		0.000s
127.0.0.1		127.0.0.1		127.0.0.1		0         	0         	-9223372036.852s		0.000s

Node: 6	 Time: 0.005	s 	SendTriggeredUpdate

DSDV Routing table
Destination		Gateway		Interface		HopCount		SeqNum		LifeTime		SettlingTime
10.1.2.2		10.1.8.1		10.1.8.2		2         	2         	0.000s		5.000s
10.1.5.1		10.1.8.1		10.1.8.2		2         	2         	0.000s		5.000s
10.1.5.2		10.1.8.1		10.1.8.2		1         	2         	0.003s		5.000s
10.1.6.2		10.1.8.1		10.1.8.2		1         	2         	0.003s		5.000s
10.1.7.2		10.1.8.1		10.1.8.2		1         	2         	0.003s		5.000s
10.1.8.1		10.1.8.1		10.1.8.2		1         	2         	0.000s		5.000s
10.1.8.255		10.1.8.255		10.1.8.2		0         	2         	-9223372036.850s		0.000s
127.0.0.1		127.0.0.1		127.0.0.1		0         	0         	-9223372036.850s		0.000s

Node: 6	 Time: 0.006	s 	SendTriggeredUpdate

DSDV Routing table
Destination		Gateway		Interface		HopCount		SeqNum		LifeTime		SettlingTime
10.1.2.2		10.1.8.1		10.1.8.2		2         	2         	0.001s		5.000s
10.1.3.2		10.1.8.1		10.1.8.2		2         	2         	0.001s		5.000s
10.1.4.2		10.1.8.1		10.1.8.2		2         	2         	0.001s		5.000s
10.1.5.1		10.1.8.1		10.1.8.2		2         	2         	0.001s		5.000s
10.1.5.2		10.1.8.1		10.1.8.2		1         	2         	0.004s		5.000s
10.1.6.1		10.1.8.1		10.1.8.2		2         	2         	0.001s		5.000s
10.1.6.2		10.1.8.1		10.1.8.2		1         	2         	0.004s		5.000s
10.1.7.1		10.1.8.1		10.1.8.2		2         	2         	0.001s		5.000s
10.1.7.2		10.1.8.1		10.1.8.2		1         	2         	0.004s		5.000s
10.1.8.1		10.1.8.1		10.1.8.2		1         	2         	0.001s		5.000s
10.1.8.255		10.1.8.255		10.1.8.2		0         	2         	-9223372036.849s		0.000s
127.0.0.1		127.0.0.1		127.0.0.1		0         	0         	-9223372036.849s		0.000s

Node: 6	 Time: 0.007	s 	SendTriggeredUpdate

DSDV Routing table
Destination		Gateway		Interface		HopCount		SeqNum		LifeTime		SettlingTime
10.1.1.2		10.1.8.1		10.1.8.2		3         	2         	0.000s		5.000s
10.1.2.1		10.1.8.1		10.1.8.2		3         	2         	0.000s		5.000s
10.1.2.2		10.1.8.1		10.1.8.2		2         	2         	0.003s		5.000s
10.1.3.1		10.1.8.1		10.1.8.2		3         	2         	0.000s		5.000s
10.1.3.2		10.1.8.1		10.1.8.2		2         	2         	0.002s		5.000s
10.1.4.1		10.1.8.1		10.1.8.2		3         	2         	0.000s		5.000s
10.1.4.2		10.1.8.1		10.1.8.2		2         	2         	0.002s		5.000s
10.1.5.1		10.1.8.1		10.1.8.2		2         	2         	0.003s		5.000s
10.1.5.2		10.1.8.1		10.1.8.2		1         	2         	0.005s		5.000s
10.1.6.1		10.1.8.1		10.1.8.2		2         	2         	0.002s		5.000s
10.1.6.2		10.1.8.1		10.1.8.2		1         	2         	0.005s		5.000s
10.1.7.1		10.1.8.1		10.1.8.2		2         	2         	0.002s		5.000s
10.1.7.2		10.1.8.1		10.1.8.2		1         	2         	0.005s		5.000s
10.1.8.1		10.1.8.1		10.1.8.2		1         	2         	0.000s		5.000s
10.1.8.255		10.1.8.255		10.1.8.2		0         	2         	-9223372036.847s		0.000s
127.0.0.1		127.0.0.1		127.0.0.1		0         	0         	-9223372036.847s		0.000s

Node: 6	 Time: 15.013	s 	SendTriggeredUpdate

DSDV Routing table
Destination		Gateway		Interface		HopCount		SeqNum		LifeTime		SettlingTime
10.1.1.2		10.1.8.1		10.1.8.2		3         	2         	15.006s		5.000s
10.1.2.1		10.1.8.1		10.1.8.2		3         	2         	15.006s		5.000s
10.1.2.2		10.1.8.1		10.1.8.2		2         	2         	15.009s		5.000s
10.1.3.1		10.1.8.1		10.1.8.2		3         	2         	15.006s		5.000s
10.1.3.2		10.1.8.1		10.1.8.2		2         	2         	15.008s		5.000s
10.1.4.1		10.1.8.1		10.1.8.2		3         	2         	15.006s		5.000s
10.1.4.2		10.1.8.1		10.1.8.2		2         	2         	15.008s		5.000s
10.1.5.1		10.1.8.1		10.1.8.2		2         	2         	15.009s		5.000s
10.1.5.2		10.1.8.1		10.1.8.2		1         	2         	15.011s		5.000s
10.1.6.1		10.1.8.1		10.1.8.2		2         	2         	15.008s		5.000s
10.1.6.2		10.1.8.1		10.1.8.2		1         	2         	15.011s		5.000s
10.1.7.1		10.1.8.1		10.1.8.2		2         	2         	15.008s		5.000s
10.1.7.2		10.1.8.1		10.1.8.2		1         	2         	15.011s		5.000s
10.1.8.1		10.1.8.1		10.1.8.2		1         	2         	0.001s		5.000s
10.1.8.255		10.1.8.255		10.1.8.2		0         	2         	-9223372021.842s		0.000s
127.0.0.1		127.0.0.1		127.0.0.1		0         	0         	-9223372021.842s		0.000s

Node: 6	 Time: 15.015	s 	SendTriggeredUpdate

DSDV Routing table
Destination		Gateway		Interface		HopCount		SeqNum		LifeTime		SettlingTime
10.1.1.2		10.1.8.1		10.1.8.2		3         	2         	15.007s		5.000s
10.1.2.1		10.1.8.1		10.1.8.2		3         	2         	15.007s		5.000s
10.1.2.2		10.1.8.1		10.1.8.2		2         	2         	15.010s		5.000s
10.1.3.1		10.1.8.1		10.1.8.2		3         	2         	15.007s		5.000s
10.1.3.2		10.1.8.1		10.1.8.2		2         	2         	15.010s		5.000s
10.1.4.1		10.1.8.1		10.1.8.2		3         	2         	15.007s		5.000s
10.1.4.2		10.1.8.1		10.1.8.2		2         	4         	0.002s		5.000s
10.1.5.1		10.1.8.1		10.1.8.2		2         	2         	15.010s		5.000s
10.1.5.2		10.1.8.1		10.1.8.2		1         	2         	15.012s		5.000s
10.1.6.1		10.1.8.1		10.1.8.2		2         	2         	15.010s		5.000s
10.1.6.2		10.1.8.1		10.1.8.2		1         	2         	15.012s		5.000s
10.1.7.1		10.1.8.1		10.1.8.2		2         	4         	0.002s		5.000s
10.1.7.2		10.1.8.1		10.1.8.2		1         	2         	15.012s		5.000s
10.1.8.1		10.1.8.1		10.1.8.2		1         	2         	0.001s		5.000s
10.1.8.255		10.1.8.255		10.1.8.2		0         	2         	-9223372021.840s		0.000s
127.0.0.1		127.0.0.1		127.0.0.1		0         	0         	-9223372021.840s		0.000s

Node: 6	 Time: 15.017	s 	SendTriggeredUpdate

DSDV Routing table
Destination		Gateway		Interface		HopCount		SeqNum		LifeTime		SettlingTime
10.1.1.2		10.1.8.1		10.1.8.2		3         	4         	0.004s		5.000s
10.1.2.1		10.1.8.1		10.1.8.2		3         	4         	0.004s		5.000s
10.1.2.2		10.1.8.1		10.1.8.2		2         	2         	15.013s		5.000s
10.1.3.1		10.1.8.1		10.1.8.2		3         	4         	0.004s		5.000s
10.1.3.2		10.1.8.1		10.1.8.2		2         	2         	15.012s		5.000s
10.1.4.1		10.1.8.1		10.1.8.2		3         	4         	0.004s		5.000s
10.1.4.2		10.1.8.1		10.1.8.2		2         	4         	0.005s		5.000s
10.1.5.1		10.1.8.1		10.1.8.2		2         	2         	15.013s		5.000s
10.1.5.2		10.1.8.1		10.1.8.2		1         	2         	15.015s		5.000s
10.1.6.1		10.1.8.1		10.1.8.2		2         	2         	15.012s		5.000s
10.1.6.2		10.1.8.1		10.1.8.2		1         	2         	15.015s		5.000s
10.1.7.1		10.1.8.1		10.1.8.2		2         	4         	0.005s		5.000s
10.1.7.2		10.1.8.1		10.1.8.2		1         	2         	15.015s		5.000s
10.1.8.1		10.1.8.1		10.1.8.2		1         	2         	0.001s		5.000s
10.1.8.255		10.1.8.255		10.1.8.2		0         	2         	-9223372021.837s		0.000s
127.0.0.1		127.0.0.1		127.0.0.1		0         	0         	-9223372021.837s		0.000s

Node: 6	 Time: 15.018	s 	SendTriggeredUpdate

DSDV Routing table
Destination		Gateway		Interface		HopCount		SeqNum		LifeTime		SettlingTime
10.1.1.2		10.1.8.1		10.1.8.2		3         	4         	0.004s		5.000s
10.1.2.1		10.1.8.1		10.1.8.2		3         	4         	0.004s		5.000s
10.1.2.2		10.1.8.1		10.1.8.2		2         	4         	0.001s		5.000s
10.1.3.1		10.1.8.1		10.1.8.2		3         	4         	0.004s		5.000s
10.1.3.2		10.1.8.1		10.1.8.2		2         	2         	15.013s		5.000s
10.1.4.1		10.1.8.1		10.1.8.2		3         	4         	0.004s		5.000s
10.1.4.2		10.1.8.1		10.1.8.2		2         	4         	0.005s		5.000s
10.1.5.1		10.1.8.1		10.1.8.2		2         	4         	0.001s		5.000s
10.1.5.2		10.1.8.1		10.1.8.2		1         	2         	15.016s		5.000s
10.1.6.1		10.1.8.1		10.1.8.2		2         	2         	15.013s		5.000s
10.1.6.2		10.1.8.1		10.1.8.2		1         	2         	15.016s		5.000s
10.1.7.1		10.1.8.1		10.1.8.2		2         	4         	0.005s		5.000s
10.1.7.2		10.1.8.1		10.1.8.2		1         	2         	15.016s		5.000s
10.1.8.1		10.1.8.1		10.1.8.2		1         	2         	0.000s		5.000s
10.1.8.255		10.1.8.255		10.1.8.2		0         	2         	-9223372021.837s		0.000s
127.0.0.1		127.0.0.1		127.0.0.1		0         	0         	-9223372021.837s		0.000s

Node: 6	 Time: 15.021	s 	SendPeriodicUpdate

DSDV Routing table
Destination		Gateway		Interface		HopCount		SeqNum		LifeTime		SettlingTime
10.1.1.2		10.1.8.1		10.1.8.2		3         	4         	0.007s		5.000s
10.1.2.1		10.1.8.1		10.1.8.2		3         	4         	0.007s		5.000s
10.1.2.2		10.1.8.1		10.1.8.2		2         	4         	0.004s		5.000s
10.1.3.1		10.1.8.1		10.1.8.2		3         	4         	0.007s		5.000s
10.1.3.2		10.1.8.1		10.1.8.2		2         	4         	0.003s		5.000s
10.1.4.1		10.1.8.1		10.1.8.2		3         	4         	0.007s		5.000s
10.1.4.2		10.1.8.1		10.1.8.2		2         	4         	0.008s		5.000s
10.1.5.1		10.1.8.1		10.1.8.2		2         	4         	0.004s		5.000s
10.1.5.2		10.1.8.1		10.1.8.2		1         	2         	15.019s		5.000s
10.1.6.1		10.1.8.1		10.1.8.2		2         	4         	0.003s		5.000s
10.1.6.2		10.1.8.1		10.1.8.2		1         	2         	15.019s		5.000s
10.1.7.1		10.1.8.1		10.1.8.2		2         	4         	0.008s		5.000s
10.1.7.2		10.1.8.1		10.1.8.2		1         	2         	15.019s		5.000s
10.1.8.1		10.1.8.1		10.1.8.2		1         	2         	0.003s		5.000s
10.1.8.255		10.1.8.255		10.1.8.2		0         	2         	-9223372021.834s		0.000s
127.0.0.1		127.0.0.1		127.0.0.1		0         	0         	-9223372021.834s		0.000s

Node: 6	 Time: 15.023	s 	SendTriggeredUpdate

DSDV Routing table
Destination		Gateway		Interface		HopCount		SeqNum		LifeTime		SettlingTime
10.1.1.1		10.1.8.1		10.1.8.2		4         	4         	0.000s		5.000s
10.1.1.2		10.1.8.1		10.1.8.2		3         	4         	0.009s		5.000s
10.1.2.1		10.1.8.1		10.1.8.2		3         	4         	0.009s		5.000s
10.1.2.2		10.1.8.1		10.1.8.2		2         	4         	0.006s		5.000s
10.1.3.1		10.1.8.1		10.1.8.2		3         	4         	0.009s		5.000s
10.1.3.2		10.1.8.1		10.1.8.2		2         	4         	0.005s		5.000s
10.1.4.1		10.1.8.1		10.1.8.2		3         	4         	0.009s		5.000s
10.1.4.2		10.1.8.1		10.1.8.2		2         	4         	0.010s		5.000s
10.1.5.1		10.1.8.1		10.1.8.2		2         	4         	0.006s		5.000s
10.1.5.2		10.1.8.1		10.1.8.2		1         	2         	15.021s		5.000s
10.1.6.1		10.1.8.1		10.1.8.2		2         	4         	0.005s		5.000s
10.1.6.2		10.1.8.1		10.1.8.2		1         	2         	15.021s		5.000s
10.1.7.1		10.1.8.1		10.1.8.2		2         	4         	0.010s		5.000s
10.1.7.2		10.1.8.1		10.1.8.2		1         	2         	15.021s		5.000s
10.1.8.1		10.1.8.1		10.1.8.2		1         	2         	0.000s		5.000s
10.1.8.255		10.1.8.255		10.1.8.2		0         	4         	-9223372021.832s		0.000s
127.0.0.1		127.0.0.1		127.0.0.1		0         	0         	-9223372021.832s		0.000s

Node: 6	 Time: 15.026	s 	SendTriggeredUpdate

DSDV Routing table
Destination		Gateway		Interface		HopCount		SeqNum		LifeTime		SettlingTime
10.1.1.1		10.1.8.1		10.1.8.2		4         	4         	0.000s		5.000s
10.1.1.2		10.1.8.1		10.1.8.2		3         	4         	0.000s		5.000s
10.1.2.1		10.1.8.1		10.1.8.2		3         	4         	0.000s		5.000s
10.1.2.2		10.1.8.1		10.1.8.2		2         	4         	0.000s		5.000s
10.1.3.1		10.1.8.1		10.1.8.2		3         	4         	0.000s		5.000s
10.1.3.2		10.1.8.1		10.1.8.2		2         	4         	0.000s		5.000s
10.1.4.1		10.1.8.1		10.1.8.2		3         	4         	0.000s		5.000s
10.1.4.2		10.1.8.1		10.1.8.2		2         	4         	0.000s		5.000s
10.1.5.1		10.1.8.1		10.1.8.2		2         	4         	0.000s		5.000s
10.1.5.2		10.1.8.1		10.1.8.2		1         	2         	15.024s		5.000s
10.1.6.1		10.1.8.1		10.1.8.2		2         	4         	0.000s		5.000s
10.1.6.2		10.1.8.1		10.1.8.2		1         	2         	15.024s		5.000s
10.1.7.1		10.1.8.1		10.1.8.2		2         	4         	0.000s		5.000s
10.1.7.2		10.1.8.1		10.1.8.2		1         	2         	15.024s		5.000s
10.1.8.1		10.1.8.1		10.1.8.2		1         	2         	0.001s		5.000s
10.1.8.255		10.1.8.255		10.1.8.2		0         	4         	-9223372021.828s		0.000s
127.0.0.1		127.0.0.1		127.0.0.1		0         	0         	-9223372021.828s		0.000s

Node: 6	 Time: 15.026	s 	SendTriggeredUpdate

DSDV Routing table
Destination		Gateway		Interface		HopCount		SeqNum		LifeTime		SettlingTime
10.1.1.1		10.1.8.1		10.1.8.2		4         	4         	0.000s		5.000s
10.1.1.2		10.1.8.1		10.1.8.2		3         	4         	0.000s		5.000s
10.1.2.1		10.1.8.1		10.1.8.2		3         	4         	0.000s		5.000s
10.1.2.2		10.1.8.1		10.1.8.2		2         	4         	0.000s		5.000s
10.1.3.1		10.1.8.1		10.1.8.2		3         	4         	0.000s		5.000s
10.1.3.2		10.1.8.1		10.1.8.2		2         	4         	0.000s		5.000s
10.1.4.1		10.1.8.1		10.1.8.2		3         	4         	0.000s		5.000s
10.1.4.2		10.1.8.1		10.1.8.2		2         	4         	0.000s		5.000s
10.1.5.1		10.1.8.1		10.1.8.2		2         	4         	0.000s		5.000s
10.1.5.2		10.1.8.1		10.1.8.2		1         	4         	0.000s		5.000s
10.1.6.1		10.1.8.1		10.1.8.2		2         	4         	0.000s		5.000s
10.1.6.2		10.1.8.1		10.1.8.2		1         	4         	0.000s		5.000s
10.1.7.1		10.1.8.1		10.1.8.2		2         	4         	0.000s		5.000s
10.1.7.2		10.1.8.1		10.1.8.2		1         	4         	0.000s		5.000s
10.1.8.1		10.1.8.1		10.1.8.2		1         	4         	0.000s		5.000s
10.1.8.255		10.1.8.255		10.1.8.2		0         	4         	-9223372021.828s		0.000s
127.0.0.1		127.0.0.1		127.0.0.1		0         	0         	-9223372021.828s		0.000s

Node: 6	 Time: 30.019	s 	SendTriggeredUpdate

DSDV Routing table
Destination		Gateway		Interface		HopCount		SeqNum		LifeTime		SettlingTime
10.1.1.1		10.1.8.1		10.1.8.2		4         	4         	14.993s		5.000s
10.1.1.2		10.1.8.1		10.1.8.2		3         	4         	14.993s		5.000s
10.1.2.1		10.1.8.1		10.1.8.2		3         	4         	14.993s		5.000s
10.1.2.2		10.1.8.1		10.1.8.2		2         	4         	14.993s		5.000s
10.1.3.1		10.1.8.1		10.1.8.2		3         	4         	14.993s		5.000s
10.1.3.2		10.1.8.1		10.1.8.2		2         	4         	14.993s		5.000s
10.1.4.1		10.1.8.1		10.1.8.2		3         	4         	14.993s		5.000s
10.1.4.2		10.1.8.1		10.1.8.2		2         	4         	14.993s		5.000s
10.1.5.1		10.1.8.1		10.1.8.2		2         	4         	14.993s		5.000s
10.1.5.2		10.1.8.1		10.1.8.2		1         	4         	14.993s		5.000s
10.1.6.1		10.1.8.1		10.1.8.2		2         	4         	14.993s		5.000s
10.1.6.2		10.1.8.1		10.1.8.2		1         	4         	14.993s		5.000s
10.1.7.1		10.1.8.1		10.1.8.2		2         	4         	14.993s		5.000s
10.1.7.2		10.1.8.1		10.1.8.2		1         	4         	14.993s		5.000s
10.1.8.1		10.1.8.1		10.1.8.2		1         	4         	0.001s		5.000s
10.1.8.255		10.1.8.255		10.1.8.2		0         	4         	-9223372006.835s		0.000s
127.0.0.1		127.0.0.1		127.0.0.1		0         	0         	-9223372006.835s		0.000s

Node: 6	 Time: 30.021	s 	SendTriggeredUpdate

DSDV Routing table
Destination		Gateway		Interface		HopCount		SeqNum		LifeTime		SettlingTime
10.1.1.1		10.1.8.1		10.1.8.2		4         	4         	14.995s		5.000s
10.1.1.2		10.1.8.1		10.1.8.2		3         	4         	14.995s		5.000s
10.1.2.1		10.1.8.1		10.1.8.2		3         	4         	14.995s		5.000s
10.1.2.2		10.1.8.1		10.1.8.2		2         	6         	0.002s		5.000s
10.1.3.1		10.1.8.1		10.1.8.2		3         	4         	14.995s		5.000s
10.1.3.2		10.1.8.1		10.1.8.2		2         	4         	14.995s		5.000s
10.1.4.1		10.1.8.1		10.1.8.2		3         	4         	14.995s		5.000s
10.1.4.2		10.1.8.1		10.1.8.2		2         	4         	14.995s		5.000s
10.1.5.1		10.1.8.1		10.1.8.2		2         	6         	0.002s		5.000s
10.1.5.2		10.1.8.1		10.1.8.2		1         	4         	14.995s		5.000s
10.1.6.1		10.1.8.1		10.1.8.2		2         	4         	14.995s		5.000s
10.1.6.2		10.1.8.1		10.1.8.2		1         	4         	14.995s		5.000s
10.1.7.1		10.1.8.1		10.1.8.2		2         	4         	14.995s		5.000s
10.1.7.2		10.1.8.1		10.1.8.2		1         	4         	14.995s		5.000s
10.1.8.1		10.1.8.1		10.1.8.2		1         	4         	0.000s		5.000s
10.1.8.255		10.1.8.255		10.1.8.2		0         	4         	-9223372006.834s		0.000s
127.0.0.1		127.0.0.1		127.0.0.1		0         	0         	-9223372006.834s		0.000s

Node: 6	 Time: 30.024	s 	SendPeriodicUpdate

DSDV Routing table
Destination		Gateway		Interface		HopCount		SeqNum		LifeTime		SettlingTime
10.1.1.1		10.1.8.1		10.1.8.2		4         	4         	14.997s		5.000s
10.1.1.2		10.1.8.1		10.1.8.2		3         	6         	0.003s		5.000s
10.1.2.1		10.1.8.1		10.1.8.2		3         	6         	0.003s		5.000s
10.1.2.2		10.1.8.1		10.1.8.2		2         	6         	0.005s		5.000s
10.1.3.1		10.1.8.1		10.1.8.2		3         	6         	0.003s		5.000s
10.1.3.2		10.1.8.1		10.1.8.2		2         	4         	14.997s		5.000s
10.1.4.1		10.1.8.1		10.1.8.2		3         	6         	0.003s		5.000s
10.1.4.2		10.1.8.1		10.1.8.2		2         	4         	14.997s		5.000s
10.1.5.1		10.1.8.1		10.1.8.2		2         	6         	0.005s		5.000s
10.1.5.2		10.1.8.1		10.1.8.2		1         	4         	14.997s		5.000s
10.1.6.1		10.1.8.1		10.1.8.2		2         	4         	14.997s		5.000s
10.1.6.2		10.1.8.1		10.1.8.2		1         	4         	14.997s		5.000s
10.1.7.1		10.1.8.1		10.1.8.2		2         	4         	14.997s		5.000s
10.1.7.2		10.1.8.1		10.1.8.2		1         	4         	14.997s		5.000s
10.1.8.1		10.1.8.1		10.1.8.2		1         	4         	0.003s		5.000s
10.1.8.255		10.1.8.255		10.1.8.2		0         	4         	-9223372006.831s		0.000s
127.0.0.1		127.0.0.1		127.0.0.1		0         	0         	-9223372006.831s		0.000s

Node: 6	 Time: 30.027	s 	SendTriggeredUpdate

DSDV Routing table
Destination		Gateway		Interface		HopCount		SeqNum		LifeTime		SettlingTime
10.1.1.1		10.1.8.1		10.1.8.2		4         	4         	15.001s		5.000s
10.1.1.2		10.1.8.1		10.1.8.2		3         	6         	0.007s		5.000s
10.1.2.1		10.1.8.1		10.1.8.2		3         	6         	0.007s		5.000s
10.1.2.2		10.1.8.1		10.1.8.2		2         	6         	0.009s		5.000s
10.1.3.1		10.1.8.1		10.1.8.2		3         	6         	0.007s		5.000s
10.1.3.2		10.1.8.1		10.1.8.2		2         	4         	15.001s		5.000s
10.1.4.1		10.1.8.1		10.1.8.2		3         	6         	0.007s		5.000s
10.1.4.2		10.1.8.1		10.1.8.2		2         	4         	15.001s		5.000s
10.1.5.1		10.1.8.1		10.1.8.2		2         	6         	0.009s		5.000s
10.1.5.2		10.1.8.1		10.1.8.2		1         	4         	15.001s		5.000s
10.1.6.1		10.1.8.1		10.1.8.2		2         	4         	15.001s		5.000s
10.1.6.2		10.1.8.1		10.1.8.2		1         	4         	15.001s		5.000s
10.1.7.1		10.1.8.1		10.1.8.2		2         	4         	15.001s		5.000s
10.1.7.2		10.1.8.1		10.1.8.2		1         	4         	15.001s		5.000s
10.1.8.1		10.1.8.1		10.1.8.2		1         	4         	0.000s		5.000s
10.1.8.255		10.1.8.255		10.1.8.2		0         	6         	-9223372006.827s		0.000s
127.0.0.1		127.0.0.1		127.0.0.1		0         	0         	-9223372006.827s		0.000s

Node: 6	 Time: 30.029	s 	SendTriggeredUpdate

DSDV Routing table
Destination		Gateway		Interface		HopCount		SeqNum		LifeTime		SettlingTime
10.1.1.1		10.1.8.1		10.1.8.2		4         	4         	15.003s		5.000s
10.1.1.2		10.1.8.1		10.1.8.2		3         	6         	0.009s		5.000s
10.1.2.1		10.1.8.1		10.1.8.2		3         	6         	0.009s		5.000s
10.1.2.2		10.1.8.1		10.1.8.2		2         	6         	0.010s		5.000s
10.1.3.1		10.1.8.1		10.1.8.2		3         	6         	0.009s		5.000s
10.1.3.2		10.1.8.1		10.1.8.2		2         	4         	15.003s		5.000s
10.1.4.1		10.1.8.1		10.1.8.2		3         	6         	0.009s		5.000s
10.1.4.2		10.1.8.1		10.1.8.2		2         	6         	0.002s		5.000s
10.1.5.1		10.1.8.1		10.1.8.2		2         	6         	0.010s		5.000s
10.1.5.2		10.1.8.1		10.1.8.2		1         	4         	15.003s		5.000s
10.1.6.1		10.1.8.1		10.1.8.2		2         	4         	15.003s		5.000s
10.1.6.2		10.1.8.1		10.1.8.2		1         	4         	15.003s		5.000s
10.1.7.1		10.1.8.1		10.1.8.2		2         	6         	0.002s		5.000s
10.1.7.2		10.1.8.1		10.1.8.2		1         	4         	15.003s		5.000s
10.1.8.1		10.1.8.1		10.1.8.2		1         	4         	0.001s		5.000s
10.1.8.255		10.1.8.255		10.1.8.2		0         	6         	-9223372006.826s		0.000s
127.0.0.1		127.0.0.1		127.0.0.1		0         	0         	-9223372006.826s		0.000s

Node: 6	 Time: 30.030	s 	SendTriggeredUpdate

DSDV Routing table
Destination		Gateway		Interface		HopCount		SeqNum		LifeTime		SettlingTime
10.1.1.1		10.1.8.1		10.1.8.2		4         	4         	15.004s		5.000s
10.1.1.2		10.1.8.1		10.1.8.2		3         	6         	0.010s		5.000s
10.1.2.1		10.1.8.1		10.1.8.2		3         	6         	0.010s		5.000s
10.1.2.2		10.1.8.1		10.1.8.2		2         	6         	0.012s		5.000s
10.1.3.1		10.1.8.1		10.1.8.2		3         	6         	0.010s		5.000s
10.1.3.2		10.1.8.1		10.1.8.2		2         	6         	0.002s		5.000s
10.1.4.1		10.1.8.1		10.1.8.2		3         	6         	0.010s		5.000s
10.1.4.2		10.1.8.1		10.1.8.2		2         	6         	0.003s		5.000s
10.1.5.1		10.1.8.1		10.1.8.2		2         	6         	0.012s		5.000s
10.1.5.2		10.1.8.1		10.1.8.2		1         	4         	15.004s		5.000s
10.1.6.1		10.1.8.1		10.1.8.2		2         	6         	0.002s		5.000s
10.1.6.2		10.1.8.1		10.1.8.2		1         	4         	15.004s		5.000s
10.1.7.1		10.1.8.1		10.1.8.2		2         	6         	0.003s		5.000s
10.1.7.2		10.1.8.1		10.1.8.2		1         	4         	15.004s		5.000s
10.1.8.1		10.1.8.1		10.1.8.2		1         	4         	0.001s		5.000s
10.1.8.255		10.1.8.255		10.1.8.2		0         	6         	-9223372006.824s		0.000s
127.0.0.1		127.0.0.1		127.0.0.1		0         	0         	-9223372006.824s		0.000s

Node: 6	 Time: 30.033	s 	SendTriggeredUpdate

DSDV Routing table
Destination		Gateway		Interface		HopCount		SeqNum		LifeTime		SettlingTime
10.1.1.1		10.1.8.1		10.1.8.2		4         	6         	0.003s		5.000s
10.1.1.2		10.1.8.1		10.1.8.2		3         	6         	0.012s		5.000s
10.1.2.1		10.1.8.1		10.1.8.2		3         	6         	0.012s		5.000s
10.1.2.2		10.1.8.1		10.1.8.2		2         	6         	0.014s		5.000s
10.1.3.1		10.1.8.1		10.1.8.2		3         	6         	0.012s		5.000s
10.1.3.2		10.1.8.1		10.1.8.2		2         	6         	0.004s		5.000s
10.1.4.1		10.1.8.1		10.1.8.2		3         	6         	0.012s		5.000s
10.1.4.2		10.1.8.1		10.1.8.2		2         	6         	0.005s		5.000s
10.1.5.1		10.1.8.1		10.1.8.2		2         	6         	0.014s		5.000s
10.1.5.2		10.1.8.1		10.1.8.2		1         	4         	15.006s		5.000s
10.1.6.1		10.1.8.1		10.1.8.2		2         	6         	0.004s		5.000s
10.1.6.2		10.1.8.1		10.1.8.2		1         	4         	15.006s		5.000s
10.1.7.1		10.1.8.1		10.1.8.2		2         	6         	0.005s		5.000s
10.1.7.2		10.1.8.1		10.1.8.2		1         	4         	15.006s		5.000s
10.1.8.1		10.1.8.1		10.1.8.2		1         	4         	0.000s		5.000s
10.1.8.255		10.1.8.255		10.1.8.2		0         	6         	-9223372006.822s		0.000s
127.0.0.1		127.0.0.1		127.0.0.1		0         	0         	-9223372006.822s		0.000s

Node: 6	 Time: 30.049	s 	SendTriggeredUpdate

DSDV Routing table
Destination		Gateway		Interface		HopCount		SeqNum		LifeTime		SettlingTime
10.1.1.1		10.1.8.1		10.1.8.2		4         	6         	0.000s		5.000s
10.1.1.2		10.1.8.1		10.1.8.2		3         	6         	0.000s		5.000s
10.1.2.1		10.1.8.1		10.1.8.2		3         	6         	0.000s		5.000s
10.1.2.2		10.1.8.1		10.1.8.2		2         	6         	0.000s		5.000s
10.1.3.1		10.1.8.1		10.1.8.2		3         	6         	0.000s		5.000s
10.1.3.2		10.1.8.1		10.1.8.2		2         	6         	0.000s		5.000s
10.1.4.1		10.1.8.1		10.1.8.2		3         	6         	0.000s		5.000s
10.1.4.2		10.1.8.1		10.1.8.2		2         	6         	0.000s		5.000s
10.1.5.1		10.1.8.1		10.1.8.2		2         	6         	0.000s		5.000s
10.1.5.2		10.1.8.1		10.1.8.2		1         	4         	15.023s		5.000s
10.1.6.1		10.1.8.1		10.1.8.2		2         	6         	0.000s		5.000s
10.1.6.2		10.1.8.1		10.1.8.2		1         	4         	15.023s		5.000s
10.1.7.1		10.1.8.1		10.1.8.2		2         	6         	0.000s		5.000s
10.1.7.2		10.1.8.1		10.1.8.2		1         	4         	15.023s		5.000s
10.1.8.1		10.1.8.1		10.1.8.2		1         	4         	0.017s		5.000s
10.1.8.255		10.1.8.255		10.1.8.2		0         	6         	-9223372006.806s		0.000s
127.0.0.1		127.0.0.1		127.0.0.1		0         	0         	-9223372006.806s		0.000s

Node: 6	 Time: 45.039	s 	SendTriggeredUpdate

DSDV Routing table
Destination		Gateway		Interface		HopCount		SeqNum		LifeTime		SettlingTime
10.1.1.1		10.1.8.1		10.1.8.2		4         	6         	14.990s		5.000s
10.1.1.2		10.1.8.1		10.1.8.2		3         	6         	14.990s		5.000s
10.1.2.1		10.1.8.1		10.1.8.2		3         	6         	14.990s		5.000s
10.1.2.2		10.1.8.1		10.1.8.2		2         	6         	14.990s		5.000s
10.1.3.1		10.1.8.1		10.1.8.2		3         	6         	14.990s		5.000s
10.1.3.2		10.1.8.1		10.1.8.2		2         	6         	14.990s		5.000s
10.1.4.1		10.1.8.1		10.1.8.2		3         	6         	14.990s		5.000s
10.1.4.2		10.1.8.1		10.1.8.2		2         	6         	14.990s		5.000s
10.1.5.1		10.1.8.1		10.1.8.2		2         	6         	14.990s		5.000s
10.1.5.2		10.1.8.1		10.1.8.2		1         	6         	14.990s		5.000s
10.1.6.1		10.1.8.1		10.1.8.2		2         	6         	14.990s		5.000s
10.1.6.2		10.1.8.1		10.1.8.2		1         	6         	14.990s		5.000s
10.1.7.1		10.1.8.1		10.1.8.2		2         	6         	14.990s		5.000s
10.1.7.2		10.1.8.1		10.1.8.2		1         	6         	14.990s		5.000s
10.1.8.1		10.1.8.1		10.1.8.2		1         	6         	0.000s		5.000s
10.1.8.255		10.1.8.255		10.1.8.2		0         	6         	-9223371991.816s		0.000s
127.0.0.1		127.0.0.1		127.0.0.1		0         	0         	-9223371991.816s		0.000s

Node: 6	 Time: 45.043	s 	SendTriggeredUpdate

DSDV Routing table
Destination		Gateway		Interface		HopCount		SeqNum		LifeTime		SettlingTime
10.1.1.1		10.1.8.1		10.1.8.2		4         	6         	14.994s		5.000s
10.1.1.2		10.1.8.1		10.1.8.2		3         	6         	14.994s		5.000s
10.1.2.1		10.1.8.1		10.1.8.2		3         	6         	14.994s		5.000s
10.1.2.2		10.1.8.1		10.1.8.2		2         	6         	14.994s		5.000s
10.1.3.1		10.1.8.1		10.1.8.2		3         	6         	14.994s		5.000s
10.1.3.2		10.1.8.1		10.1.8.2		2         	6         	14.994s		5.000s
10.1.4.1		10.1.8.1		10.1.8.2		3         	6         	14.994s		5.000s
10.1.4.2		10.1.8.1		10.1.8.2		2         	8         	0.004s		5.000s
10.1.5.1		10.1.8.1		10.1.8.2		2         	6         	14.994s		5.000s
10.1.5.2		10.1.8.1		10.1.8.2		1         	6         	14.994s		5.000s
10.1.6.1		10.1.8.1		10.1.8.2		2         	6         	14.994s		5.000s
10.1.6.2		10.1.8.1		10.1.8.2		1         	6         	14.994s		5.000s
10.1.7.1		10.1.8.1		10.1.8.2		2         	8         	0.004s		5.000s
10.1.7.2		10.1.8.1		10.1.8.2		1         	6         	14.994s		5.000s
10.1.8.1		10.1.8.1		10.1.8.2		1         	6         	0.000s		5.000s
10.1.8.255		10.1.8.255		10.1.8.2		0         	6         	-9223371991.812s		0.000s
127.0.0.1		127.0.0.1		127.0.0.1		0         	0         	-9223371991.812s		0.000s

Node: 6	 Time: 45.044	s 	SendTriggeredUpdate

DSDV Routing table
Destination		Gateway		Interface		HopCount		SeqNum		LifeTime		SettlingTime
10.1.1.1		10.1.8.1		10.1.8.2		4         	6         	14.995s		5.000s
10.1.1.2		10.1.8.1		10.1.8.2		3         	6         	14.995s		5.000s
10.1.2.1		10.1.8.1		10.1.8.2		3         	6         	14.995s		5.000s
10.1.2.2		10.1.8.1		10.1.8.2		2         	8         	0.001s		5.000s
10.1.3.1		10.1.8.1		10.1.8.2		3         	6         	14.995s		5.000s
10.1.3.2		10.1.8.1		10.1.8.2		2         	6         	14.995s		5.000s
10.1.4.1		10.1.8.1		10.1.8.2		3         	6         	14.995s		5.000s
10.1.4.2		10.1.8.1		10.1.8.2		2         	8         	0.005s		5.000s
10.1.5.1		10.1.8.1		10.1.8.2		2         	8         	0.001s		5.000s
10.1.5.2		10.1.8.1		10.1.8.2		1         	6         	14.995s		5.000s
10.1.6.1		10.1.8.1		10.1.8.2		2         	6         	14.995s		5.000s
10.1.6.2		10.1.8.1		10.1.8.2		1         	6         	14.995s		5.000s
10.1.7.1		10.1.8.1		10.1.8.2		2         	8         	0.005s		5.000s
10.1.7.2		10.1.8.1		10.1.8.2		1         	6         	14.995s		5.000s
10.1.8.1		10.1.8.1		10.1.8.2		1         	6         	0.001s		5.000s
10.1.8.255		10.1.8.255		10.1.8.2		0         	6         	-9223371991.811s		0.000s
127.0.0.1		127.0.0.1		127.0.0.1		0         	0         	-9223371991.811s		0.000s

Node: 6	 Time: 45.044	s 	SendPeriodicUpdate

DSDV Routing table
Destination		Gateway		Interface		HopCount		SeqNum		LifeTime		SettlingTime
10.1.1.1		10.1.8.1		10.1.8.2		4         	6         	14.996s		5.000s
10.1.1.2		10.1.8.1		10.1.8.2		3         	8         	0.001s		5.000s
10.1.2.1		10.1.8.1		10.1.8.2		3         	8         	0.001s		5.000s
10.1.2.2		10.1.8.1		10.1.8.2		2         	8         	0.001s		5.000s
10.1.3.1		10.1.8.1		10.1.8.2		3         	8         	0.001s		5.000s
10.1.3.2		10.1.8.1		10.1.8.2		2         	6         	14.996s		5.000s
10.1.4.1		10.1.8.1		10.1.8.2		3         	8         	0.001s		5.000s
10.1.4.2		10.1.8.1		10.1.8.2		2         	8         	0.006s		5.000s
10.1.5.1		10.1.8.1		10.1.8.2		2         	8         	0.001s		5.000s
10.1.5.2		10.1.8.1		10.1.8.2		1         	6         	14.996s		5.000s
10.1.6.1		10.1.8.1		10.1.8.2		2         	8         	0.001s		5.000s
10.1.6.2		10.1.8.1		10.1.8.2		1         	6         	14.996s		5.000s
10.1.7.1		10.1.8.1		10.1.8.2		2         	8         	0.006s		5.000s
10.1.7.2		10.1.8.1		10.1.8.2		1         	6         	14.996s		5.000s
10.1.8.1		10.1.8.1		10.1.8.2		1         	6         	0.001s		5.000s
10.1.8.255		10.1.8.255		10.1.8.2		0         	6         	-9223371991.811s		0.000s
127.0.0.1		127.0.0.1		127.0.0.1		0         	0         	-9223371991.811s		0.000s

Node: 6	 Time: 45.046	s 	SendTriggeredUpdate

DSDV Routing table
Destination		Gateway		Interface		HopCount		SeqNum		LifeTime		SettlingTime
10.1.1.1		10.1.8.1		10.1.8.2		4         	6         	14.998s		5.000s
10.1.1.2		10.1.8.1		10.1.8.2		3         	8         	0.003s		5.000s
10.1.2.1		10.1.8.1		10.1.8.2		3         	8         	0.003s		5.000s
10.1.2.2		10.1.8.1		10.1.8.2		2         	8         	0.004s		5.000s
10.1.3.1		10.1.8.1		10.1.8.2		3         	8         	0.003s		5.000s
10.1.3.2		10.1.8.1		10.1.8.2		2         	6         	14.998s		5.000s
10.1.4.1		10.1.8.1		10.1.8.2		3         	8         	0.003s		5.000s
10.1.4.2		10.1.8.1		10.1.8.2		2         	8         	0.008s		5.000s
10.1.5.1		10.1.8.1		10.1.8.2		2         	8         	0.004s		5.000s
10.1.5.2		10.1.8.1		10.1.8.2		1         	6         	14.998s		5.000s
10.1.6.1		10.1.8.1		10.1.8.2		2         	8         	0.003s		5.000s
10.1.6.2		10.1.8.1		10.1.8.2		1         	6         	14.998s		5.000s
10.1.7.1		10.1.8.1		10.1.8.2		2         	8         	0.008s		5.000s
10.1.7.2		10.1.8.1		10.1.8.2		1         	6         	14.998s		5.000s
10.1.8.1		10.1.8.1		10.1.8.2		1         	6         	0.000s		5.000s
10.1.8.255		10.1.8.255		10.1.8.2		0         	8         	-9223371991.808s		0.000s
127.0.0.1		127.0.0.1		127.0.0.1		0         	0         	-9223371991.808s		0.000s

Node: 6	 Time: 45.047	s 	SendTriggeredUpdate

DSDV Routing table
Destination		Gateway		Interface		HopCount		SeqNum		LifeTime		SettlingTime
10.1.1.1		10.1.8.1		10.1.8.2		4         	8         	0.001s		5.000s
10.1.1.2		10.1.8.1		10.1.8.2		3         	8         	0.004s		5.000s
10.1.2.1		10.1.8.1		10.1.8.2		3         	8         	0.004s		5.000s
10.1.2.2		10.1.8.1		10.1.8.2		2         	8         	0.005s		5.000s
10.1.3.1		10.1.8.1		10.1.8.2		3         	8         	0.004s		5.000s
10.1.3.2		10.1.8.1		10.1.8.2		4         	8         	0.000s		0.000s
10.1.4.1		10.1.8.1		10.1.8.2		3         	8         	0.004s		5.000s
10.1.4.2		10.1.8.1		10.1.8.2		2         	8         	0.009s		5.000s
10.1.5.1		10.1.8.1		10.1.8.2		2         	8         	0.005s		5.000s
10.1.5.2		10.1.8.1		10.1.8.2		1         	6         	14.999s		5.000s
10.1.6.1		10.1.8.1		10.1.8.2		2         	8         	0.004s		5.000s
10.1.6.2		10.1.8.1		10.1.8.2		1         	6         	14.999s		5.000s
10.1.7.1		10.1.8.1		10.1.8.2		2         	8         	0.009s		5.000s
10.1.7.2		10.1.8.1		10.1.8.2		1         	6         	14.999s		5.000s
10.1.8.1		10.1.8.1		10.1.8.2		1         	6         	0.000s		5.000s
10.1.8.255		10.1.8.255		10.1.8.2		0         	8         	-9223371991.807s		0.000s
127.0.0.1		127.0.0.1		127.0.0.1		0         	0         	-9223371991.807s		0.000s

Node: 6	 Time: 45.048	s 	SendTriggeredUpdate

DSDV Routing table
Destination		Gateway		Interface		HopCount		SeqNum		LifeTime		SettlingTime
10.1.1.1		10.1.8.1		10.1.8.2		4         	8         	0.002s		5.000s
10.1.1.2		10.1.8.1		10.1.8.2		3         	8         	0.005s		5.000s
10.1.2.1		10.1.8.1		10.1.8.2		3         	8         	0.005s		5.000s
10.1.2.2		10.1.8.1		10.1.8.2		2         	8         	0.005s		5.000s
10.1.3.1		10.1.8.1		10.1.8.2		3         	8         	0.005s		5.000s
10.1.3.2		10.1.8.1		10.1.8.2		4         	8         	0.000s		0.000s
10.1.4.1		10.1.8.1		10.1.8.2		3         	8         	0.005s		5.000s
10.1.4.2		10.1.8.1		10.1.8.2		2         	8         	0.009s		5.000s
10.1.5.1		10.1.8.1		10.1.8.2		2         	8         	0.005s		5.000s
10.1.5.2		10.1.8.1		10.1.8.2		1         	6         	14.999s		5.000s
10.1.6.1		10.1.8.1		10.1.8.2		2         	8         	0.005s		5.000s
10.1.6.2		10.1.8.1		10.1.8.2		1         	6         	14.999s		5.000s
10.1.7.1		10.1.8.1		10.1.8.2		2         	8         	0.009s		5.000s
10.1.7.2		10.1.8.1		10.1.8.2		1         	6         	14.999s		5.000s
10.1.8.1		10.1.8.1		10.1.8.2		1         	6         	0.000s		5.000s
10.1.8.255		10.1.8.255		10.1.8.2		0         	8         	-9223371991.807s		0.000s
127.0.0.1		127.0.0.1		127.0.0.1		0         	0         	-9223371991.807s		0.000s

Node: 6	 Time: 45.050	s 	SendTriggeredUpdate

DSDV Routing table
Destination		Gateway		Interface		HopCount		SeqNum		LifeTime		SettlingTime
10.1.1.1		10.1.8.1		10.1.8.2		4         	8         	0.004s		5.000s
10.1.1.2		10.1.8.1		10.1.8.2		3         	8         	0.006s		5.000s
10.1.2.1		10.1.8.1		10.1.8.2		3         	8         	0.006s		5.000s
10.1.2.2		10.1.8.1		10.1.8.2		2         	8         	0.007s		5.000s
10.1.3.1		10.1.8.1		10.1.8.2		3         	8         	0.006s		5.000s
10.1.3.2		10.1.8.1		10.1.8.2		4         	8         	0.002s		0.000s
10.1.4.1		10.1.8.1		10.1.8.2		3         	8         	0.006s		5.000s
10.1.4.2		10.1.8.1		10.1.8.2		2         	8         	0.011s		5.000s
10.1.5.1		10.1.8.1		10.1.8.2		2         	8         	0.007s		5.000s
10.1.5.2		10.1.8.1		10.1.8.2		1         	6         	15.001s		5.000s
10.1.6.1		10.1.8.1		10.1.8.2		2         	8         	0.006s		5.000s
10.1.6.2		10.1.8.1		10.1.8.2		1         	6         	15.001s		5.000s
10.1.7.1		10.1.8.1		10.1.8.2		2         	8         	0.011s		5.000s
10.1.7.2		10.1.8.1		10.1.8.2		1         	6         	15.001s		5.000s
10.1.8.1		10.1.8.1		10.1.8.2		1         	6         	0.001s		5.000s
10.1.8.255		10.1.8.255		10.1.8.2		0         	8         	-9223371991.805s		0.000s
127.0.0.1		127.0.0.1		127.0.0.1		0         	0         	-9223371991.805s		0.000s

Node: 6	 Time: 45.064	s 	SendTriggeredUpdate

DSDV Routing table
Destination		Gateway		Interface		HopCount		SeqNum		LifeTime		SettlingTime
10.1.1.1		10.1.8.1		10.1.8.2		4         	8         	0.001s		5.000s
10.1.1.2		10.1.8.1		10.1.8.2		3         	8         	0.001s		5.000s
10.1.2.1		10.1.8.1		10.1.8.2		3         	8         	0.001s		5.000s
10.1.2.2		10.1.8.1		10.1.8.2		2         	8         	0.001s		5.000s
10.1.3.1		10.1.8.1		10.1.8.2		3         	8         	0.001s		5.000s
10.1.3.2		10.1.8.1		10.1.8.2		4         	8         	0.001s		0.000s
10.1.4.1		10.1.8.1		10.1.8.2		3         	8         	0.001s		5.000s
10.1.4.2		10.1.8.1		10.1.8.2		2         	8         	0.001s		5.000s
10.1.5.1		10.1.8.1		10.1.8.2		2         	8         	0.001s		5.000s
10.1.5.2		10.1.8.1		10.1.8.2		1         	6         	15.016s		5.000s
10.1.6.1		10.1.8.1		10.1.8.2		2         	8         	0.001s		5.000s
10.1.6.2		10.1.8.1		10.1.8.2		1         	6         	15.016s		5.000s
10.1.7.1		10.1.8.1		10.1.8.2		2         	8         	0.001s		5.000s
10.1.7.2		10.1.8.1		10.1.8.2		1         	6         	15.016s		5.000s
10.1.8.1		10.1.8.1		10.1.8.2		1         	6         	0.015s		5.000s
10.1.8.255		10.1.8.255		10.1.8.2		0         	8         	-9223371991.791s		0.000s
127.0.0.1		127.0.0.1		127.0.0.1		0         	0         	-9223371991.791s		0.000s

Node: 6	 Time: 60.048	s 	SendPeriodicUpdate

DSDV Routing table
Destination		Gateway		Interface		HopCount		SeqNum		LifeTime		SettlingTime
10.1.1.1		10.1.8.1		10.1.8.2		4         	8         	14.985s		5.000s
10.1.1.2		10.1.8.1		10.1.8.2		3         	8         	14.985s		5.000s
10.1.2.1		10.1.8.1		10.1.8.2		3         	8         	14.985s		5.000s
10.1.2.2		10.1.8.1		10.1.8.2		2         	8         	14.985s		5.000s
10.1.3.1		10.1.8.1		10.1.8.2		3         	8         	14.985s		5.000s
10.1.3.2		10.1.8.1		10.1.8.2		4         	8         	14.985s		0.000s
10.1.4.1		10.1.8.1		10.1.8.2		3         	8         	14.985s		5.000s
10.1.4.2		10.1.8.1		10.1.8.2		2         	8         	14.985s		5.000s
10.1.5.1		10.1.8.1		10.1.8.2		2         	8         	14.985s		5.000s
10.1.5.2		10.1.8.1		10.1.8.2		1         	8         	14.985s		5.000s
10.1.6.1		10.1.8.1		10.1.8.2		2         	8         	14.985s		5.000s
10.1.6.2		10.1.8.1		10.1.8.2		1         	8         	14.985s		5.000s
10.1.7.1		10.1.8.1		10.1.8.2		2         	8         	14.985s		5.000s
10.1.7.2		10.1.8.1		10.1.8.2		1         	8         	14.985s		5.000s
10.1.8.1		10.1.8.1		10.1.8.2		1         	8         	14.985s		5.000s
10.1.8.255		10.1.8.255		10.1.8.2		0         	8         	-9223371976.806s		0.000s
127.0.0.1		127.0.0.1		127.0.0.1		0         	0         	-9223371976.806s		0.000s

Node: 6	 Time: 60.054	s 	SendTriggeredUpdate

DSDV Routing table
Destination		Gateway		Interface		HopCount		SeqNum		LifeTime		SettlingTime
10.1.1.1		10.1.8.1		10.1.8.2		4         	8         	14.990s		5.000s
10.1.1.2		10.1.8.1		10.1.8.2		3         	8         	14.990s		5.000s
10.1.2.1		10.1.8.1		10.1.8.2		3         	8         	14.990s		5.000s
10.1.2.2		10.1.8.1		10.1.8.2		2         	8         	14.990s		5.000s
10.1.3.1		10.1.8.1		10.1.8.2		3         	8         	14.990s		5.000s
10.1.3.2		10.1.8.1		10.1.8.2		4         	8         	14.990s		0.000s
10.1.4.1		10.1.8.1		10.1.8.2		3         	8         	14.990s		5.000s
10.1.4.2		10.1.8.1		10.1.8.2		2         	8         	14.990s		5.000s
10.1.5.1		10.1.8.1		10.1.8.2		2         	8         	14.990s		5.000s
10.1.5.2		10.1.8.1		10.1.8.2		1         	8         	14.990s		5.000s
10.1.6.1		10.1.8.1		10.1.8.2		2         	8         	14.990s		5.000s
10.1.6.2		10.1.8.1		10.1.8.2		1         	8         	14.990s		5.000s
10.1.7.1		10.1.8.1		10.1.8.2		2         	8         	14.990s		5.000s
10.1.7.2		10.1.8.1		10.1.8.2		1         	8         	14.990s		5.000s
10.1.8.1		10.1.8.1		10.1.8.2		1         	8         	0.001s		5.000s
10.1.8.255		10.1.8.255		10.1.8.2		0         	10        	-9223371976.801s		0.000s
127.0.0.1		127.0.0.1		127.0.0.1		0         	0         	-9223371976.801s		0.000s

Node: 6	 Time: 60.058	s 	SendTriggeredUpdate

DSDV Routing table
Destination		Gateway		Interface		HopCount		SeqNum		LifeTime		SettlingTime
10.1.1.1		10.1.8.1		10.1.8.2		4         	8         	14.995s		5.000s
10.1.1.2		10.1.8.1		10.1.8.2		3         	8         	14.995s		5.000s
10.1.2.1		10.1.8.1		10.1.8.2		3         	8         	14.995s		5.000s
10.1.2.2		10.1.8.1		10.1.8.2		2         	8         	14.995s		5.000s
10.1.3.1		10.1.8.1		10.1.8.2		3         	8         	14.995s		5.000s
10.1.3.2		10.1.8.1		10.1.8.2		2         	10        	0.000s		0.000s
10.1.4.1		10.1.8.1		10.1.8.2		3         	8         	14.995s		5.000s
10.1.4.2		10.1.8.1		10.1.8.2		2         	8         	14.995s		5.000s
10.1.5.1		10.1.8.1		10.1.8.2		2         	8         	14.995s		5.000s
10.1.5.2		10.1.8.1		10.1.8.2		1         	8         	14.995s		5.000s
10.1.6.1		10.1.8.1		10.1.8.2		2         	8         	14.995s		5.000s
10.1.6.2		10.1.8.1		10.1.8.2		1         	8         	14.995s		5.000s
10.1.7.1		10.1.8.1		10.1.8.2		2         	8         	14.995s		5.000s
10.1.7.2		10.1.8.1		10.1.8.2		1         	8         	14.995s		5.000s
10.1.8.1		10.1.8.1		10.1.8.2		1         	8         	0.000s		5.000s
10.1.8.255		10.1.8.255		10.1.8.2		0         	10        	-9223371976.797s		0.000s
127.0.0.1		127.0.0.1		127.0.0.1		0         	0         	-9223371976.797s		0.000s

Node: 6	 Time: 60.059	s 	SendTriggeredUpdate

DSDV Routing table
Destination		Gateway		Interface		HopCount		SeqNum		LifeTime		SettlingTime
10.1.1.1		10.1.8.1		10.1.8.2		4         	8         	14.995s		5.000s
10.1.1.2		10.1.8.1		10.1.8.2		3         	8         	14.995s		5.000s
10.1.2.1		10.1.8.1		10.1.8.2		3         	8         	14.995s		5.000s
10.1.2.2		10.1.8.1		10.1.8.2		2         	8         	14.995s		5.000s
10.1.3.1		10.1.8.1		10.1.8.2		3         	8         	14.995s		5.000s
10.1.3.2		10.1.8.1		10.1.8.2		2         	10        	0.001s		0.000s
10.1.4.1		10.1.8.1		10.1.8.2		3         	8         	14.995s		5.000s
10.1.4.2		10.1.8.1		10.1.8.2		2         	8         	14.995s		5.000s
10.1.5.1		10.1.8.1		10.1.8.2		2         	8         	14.995s		5.000s
10.1.5.2		10.1.8.1		10.1.8.2		1         	8         	14.995s		5.000s
10.1.6.1		10.1.8.1		10.1.8.2		2         	10        	0.001s		5.000s
10.1.6.2		10.1.8.1		10.1.8.2		1         	8         	14.995s		5.000s
10.1.7.1		10.1.8.1		10.1.8.2		2         	8         	14.995s		5.000s
10.1.7.2		10.1.8.1		10.1.8.2		1         	8         	14.995s		5.000s
10.1.8.1		10.1.8.1		10.1.8.2		1         	8         	0.001s		5.000s
10.1.8.255		10.1.8.255		10.1.8.2		0         	10        	-9223371976.796s		0.000s
127.0.0.1		127.0.0.1		127.0.0.1		0         	0         	-9223371976.796s		0.000s

Node: 6	 Time: 60.061	s 	SendTriggeredUpdate

DSDV Routing table
Destination		Gateway		Interface		HopCount		SeqNum		LifeTime		SettlingTime
10.1.1.1		10.1.8.1		10.1.8.2		4         	8         	14.998s		5.000s
10.1.1.2		10.1.8.1		10.1.8.2		3         	8         	14.998s		5.000s
10.1.2.1		10.1.8.1		10.1.8.2		3         	8         	14.998s		5.000s
10.1.2.2		10.1.8.1		10.1.8.2		2         	8         	14.998s		5.000s
10.1.3.1		10.1.8.1		10.1.8.2		3         	8         	14.998s		5.000s
10.1.3.2		10.1.8.1		10.1.8.2		2         	10        	0.003s		0.000s
10.1.4.1		10.1.8.1		10.1.8.2		3         	8         	14.998s		5.000s
10.1.4.2		10.1.8.1		10.1.8.2		2         	8         	14.998s		5.000s
10.1.5.1		10.1.8.1		10.1.8.2		2         	8         	14.998s		5.000s
10.1.5.2		10.1.8.1		10.1.8.2		1         	8         	14.998s		5.000s
10.1.6.1		10.1.8.1		10.1.8.2		2         	10        	0.003s		5.000s
10.1.6.2		10.1.8.1		10.1.8.2		1         	8         	14.998s		5.000s
10.1.7.1		10.1.8.1		10.1.8.2		2         	8         	14.998s		5.000s
10.1.7.2		10.1.8.1		10.1.8.2		1         	8         	14.998s		5.000s
10.1.8.1		10.1.8.1		10.1.8.2		1         	8         	0.001s		5.000s
10.1.8.255		10.1.8.255		10.1.8.2		0         	10        	-9223371976.793s		0.000s
127.0.0.1		127.0.0.1		127.0.0.1		0         	0         	-9223371976.793s		0.000s

Node: 6	 Time: 60.065	s 	SendTriggeredUpdate

DSDV Routing table
Destination		Gateway		Interface		HopCount		SeqNum		LifeTime		SettlingTime
10.1.1.1		10.1.8.1		10.1.8.2		4         	8         	15.001s		5.000s
10.1.1.2		10.1.8.1		10.1.8.2		3         	8         	15.001s		5.000s
10.1.2.1		10.1.8.1		10.1.8.2		3         	8         	15.001s		5.000s
10.1.2.2		10.1.8.1		10.1.8.2		2         	10        	0.004s		5.000s
10.1.3.1		10.1.8.1		10.1.8.2		3         	8         	15.001s		5.000s
10.1.3.2		10.1.8.1		10.1.8.2		2         	10        	0.007s		0.000s
10.1.4.1		10.1.8.1		10.1.8.2		3         	8         	15.001s		5.000s
10.1.4.2		10.1.8.1		10.1.8.2		2         	8         	15.001s		5.000s
10.1.5.1		10.1.8.1		10.1.8.2		2         	10        	0.004s		5.000s
10.1.5.2		10.1.8.1		10.1.8.2		1         	8         	15.001s		5.000s
10.1.6.1		10.1.8.1		10.1.8.2		2         	10        	0.007s		5.000s
10.1.6.2		10.1.8.1		10.1.8.2		1         	8         	15.001s		5.000s
10.1.7.1		10.1.8.1		10.1.8.2		2         	8         	15.001s		5.000s
10.1.7.2		10.1.8.1		10.1.8.2		1         	8         	15.001s		5.000s
10.1.8.1		10.1.8.1		10.1.8.2		1         	8         	0.001s		5.000s
10.1.8.255		10.1.8.255		10.1.8.2		0         	10        	-9223371976.790s		0.000s
127.0.0.1		127.0.0.1		127.0.0.1		0         	0         	-9223371976.790s		0.000s

Node: 6	 Time: 60.071	s 	SendTriggeredUpdate

DSDV Routing table
Destination		Gateway		Interface		HopCount		SeqNum		LifeTime		SettlingTime
10.1.1.1		10.1.8.1		10.1.8.2		4         	8         	0.001s		5.000s
10.1.1.2		10.1.8.1		10.1.8.2		3         	8         	0.001s		5.000s
10.1.2.1		10.1.8.1		10.1.8.2		3         	8         	0.001s		5.000s
10.1.2.2		10.1.8.1		10.1.8.2		2         	10        	0.001s		5.000s
10.1.3.1		10.1.8.1		10.1.8.2		3         	10        	0.001s		5.000s
10.1.3.2		10.1.8.1		10.1.8.2		2         	10        	0.001s		0.000s
10.1.4.1		10.1.8.1		10.1.8.2		3         	8         	0.001s		5.000s
10.1.4.2		10.1.8.1		10.1.8.2		2         	8         	0.001s		5.000s
10.1.5.1		10.1.8.1		10.1.8.2		2         	10        	0.001s		5.000s
10.1.5.2		10.1.8.1		10.1.8.2		1         	8         	15.008s		5.000s
10.1.6.1		10.1.8.1		10.1.8.2		2         	10        	0.001s		5.000s
10.1.6.2		10.1.8.1		10.1.8.2		1         	8         	15.008s		5.000s
10.1.7.1		10.1.8.1		10.1.8.2		2         	8         	0.001s		5.000s
10.1.7.2		10.1.8.1		10.1.8.2		1         	8         	15.008s		5.000s
10.1.8.1		10.1.8.1		10.1.8.2		1         	8         	0.007s		5.000s
10.1.8.255		10.1.8.255		10.1.8.2		0         	10        	-9223371976.784s		0.000s
127.0.0.1		127.0.0.1		127.0.0.1		0         	0         	-9223371976.784s		0.000s

Node: 6	 Time: 75.063	s 	SendTriggeredUpdate

DSDV Routing table
Destination		Gateway		Interface		HopCount		SeqNum		LifeTime		SettlingTime
10.1.1.1		10.1.8.1		10.1.8.2		4         	8         	14.993s		5.000s
10.1.1.2		10.1.8.1		10.1.8.2		3         	8         	14.993s		5.000s
10.1.2.1		10.1.8.1		10.1.8.2		3         	8         	14.993s		5.000s
10.1.2.2		10.1.8.1		10.1.8.2		2         	10        	14.993s		5.000s
10.1.3.1		10.1.8.1		10.1.8.2		3         	10        	14.993s		5.000s
10.1.3.2		10.1.8.1		10.1.8.2		2         	10        	14.993s		0.000s
10.1.4.1		10.1.8.1		10.1.8.2		3         	8         	14.993s		5.000s
10.1.4.2		10.1.8.1		10.1.8.2		2         	8         	14.993s		5.000s
10.1.5.1		10.1.8.1		10.1.8.2		2         	10        	14.993s		5.000s
10.1.5.2		10.1.8.1		10.1.8.2		1         	10        	14.993s		5.000s
10.1.6.1		10.1.8.1		10.1.8.2		2         	10        	14.993s		5.000s
10.1.6.2		10.1.8.1		10.1.8.2		1         	10        	14.993s		5.000s
10.1.7.1		10.1.8.1		10.1.8.2		2         	8         	14.993s		5.000s
10.1.7.2		10.1.8.1		10.1.8.2		1         	10        	14.993s		5.000s
10.1.8.1		10.1.8.1		10.1.8.2		1         	10        	0.000s		5.000s
10.1.8.255		10.1.8.255		10.1.8.2		0         	10        	-9223371961.792s		0.000s
127.0.0.1		127.0.0.1		127.0.0.1		0         	0         	-9223371961.792s		0.000s

Node: 6	 Time: 75.068	s 	SendPeriodicUpdate

DSDV Routing table
Destination		Gateway		Interface		HopCount		SeqNum		LifeTime		SettlingTime
10.1.1.1		10.1.8.1		10.1.8.2		4         	10        	0.006s		5.000s
10.1.1.2		10.1.8.1		10.1.8.2		3         	10        	0.006s		5.000s
10.1.2.1		10.1.8.1		10.1.8.2		3         	10        	0.006s		5.000s
10.1.2.2		10.1.8.1		10.1.8.2		2         	10        	14.998s		5.000s
10.1.3.1		10.1.8.1		10.1.8.2		3         	10        	14.998s		5.000s
10.1.3.2		10.1.8.1		10.1.8.2		2         	12        	0.006s		0.000s
10.1.4.1		10.1.8.1		10.1.8.2		3         	10        	0.006s		5.000s
10.1.4.2		10.1.8.1		10.1.8.2		2         	8         	14.998s		5.000s
10.1.5.1		10.1.8.1		10.1.8.2		2         	10        	14.998s		5.000s
10.1.5.2		10.1.8.1		10.1.8.2		1         	10        	14.998s		5.000s
10.1.6.1		10.1.8.1		10.1.8.2		2         	12        	0.006s		5.000s
10.1.6.2		10.1.8.1		10.1.8.2		1         	10        	14.998s		5.000s
10.1.7.1		10.1.8.1		10.1.8.2		2         	8         	14.998s		5.000s
10.1.7.2		10.1.8.1		10.1.8.2		1         	10        	14.998s		5.000s
10.1.8.1		10.1.8.1		10.1.8.2		1         	10        	0.006s		5.000s
10.1.8.255		10.1.8.255		10.1.8.2		0         	10        	-9223371961.786s		0.000s
127.0.0.1		127.0.0.1		127.0.0.1		0         	0         	-9223371961.786s		0.000s

Node: 6	 Time: 75.069	s 	SendTriggeredUpdate

DSDV Routing table
Destination		Gateway		Interface		HopCount		SeqNum		LifeTime		SettlingTime
10.1.1.1		10.1.8.1		10.1.8.2		4         	10        	0.006s		5.000s
10.1.1.2		10.1.8.1		10.1.8.2		3         	10        	0.006s		5.000s
10.1.2.1		10.1.8.1		10.1.8.2		3         	10        	0.006s		5.000s
10.1.2.2		10.1.8.1		10.1.8.2		2         	10        	14.999s		5.000s
10.1.3.1		10.1.8.1		10.1.8.2		3         	10        	14.999s		5.000s
10.1.3.2		10.1.8.1		10.1.8.2		2         	12        	0.006s		0.000s
10.1.4.1		10.1.8.1		10.1.8.2		3         	10        	0.006s		5.000s
10.1.4.2		10.1.8.1		10.1.8.2		2         	8         	14.999s		5.000s
10.1.5.1		10.1.8.1		10.1.8.2		2         	10        	14.999s		5.000s
10.1.5.2		10.1.8.1		10.1.8.2		1         	10        	14.999s		5.000s
10.1.6.1		10.1.8.1		10.1.8.2		2         	12        	0.006s		5.000s
10.1.6.2		10.1.8.1		10.1.8.2		1         	10        	14.999s		5.000s
10.1.7.1		10.1.8.1		10.1.8.2		2         	8         	14.999s		5.000s
10.1.7.2		10.1.8.1		10.1.8.2		1         	10        	14.999s		5.000s
10.1.8.1		10.1.8.1		10.1.8.2		1         	10        	0.000s		5.000s
10.1.8.255		10.1.8.255		10.1.8.2		0         	12        	-9223371961.786s		0.000s
127.0.0.1		127.0.0.1		127.0.0.1		0         	0         	-9223371961.786s		0.000s

Node: 6	 Time: 75.073	s 	SendTriggeredUpdate

DSDV Routing table
Destination		Gateway		Interface		HopCount		SeqNum		LifeTime		SettlingTime
10.1.1.1		10.1.8.1		10.1.8.2		4         	12        	0.005s		5.000s
10.1.1.2		10.1.8.1		10.1.8.2		3         	10        	0.011s		5.000s
10.1.2.1		10.1.8.1		10.1.8.2		3         	10        	0.011s		5.000s
10.1.2.2		10.1.8.1		10.1.8.2		2         	12        	0.005s		5.000s
10.1.3.1		10.1.8.1		10.1.8.2		3         	10        	15.003s		5.000s
10.1.3.2		10.1.8.1		10.1.8.2		2         	12        	0.011s		0.000s
10.1.4.1		10.1.8.1		10.1.8.2		3         	10        	0.011s		5.000s
10.1.4.2		10.1.8.1		10.1.8.2		2         	8         	15.003s		5.000s
10.1.5.1		10.1.8.1		10.1.8.2		2         	10        	15.003s		5.000s
10.1.5.2		10.1.8.1		10.1.8.2		1         	10        	15.003s		5.000s
10.1.6.1		10.1.8.1		10.1.8.2		2         	12        	0.011s		5.000s
10.1.6.2		10.1.8.1		10.1.8.2		1         	10        	15.003s		5.000s
10.1.7.1		10.1.8.1		10.1.8.2		2         	8         	15.003s		5.000s
10.1.7.2		10.1.8.1		10.1.8.2		1         	10        	15.003s		5.000s
10.1.8.1		10.1.8.1		10.1.8.2		1         	10        	0.000s		5.000s
10.1.8.255		10.1.8.255		10.1.8.2		0         	12        	-9223371961.781s		0.000s
127.0.0.1		127.0.0.1		127.0.0.1		0         	0         	-9223371961.781s		0.000s

Node: 6	 Time: 75.092	s 	SendTriggeredUpdate

DSDV Routing table
Destination		Gateway		Interface		HopCount		SeqNum		LifeTime		SettlingTime
10.1.1.1		10.1.8.1		10.1.8.2		4         	12        	0.001s		5.000s
10.1.1.2		10.1.8.1		10.1.8.2		3         	10        	0.001s		5.000s
10.1.2.1		10.1.8.1		10.1.8.2		3         	10        	0.001s		5.000s
10.1.2.2		10.1.8.1		10.1.8.2		2         	12        	0.001s		5.000s
10.1.3.1		10.1.8.1		10.1.8.2		3         	10        	0.001s		5.000s
10.1.3.2		10.1.8.1		10.1.8.2		2         	12        	0.001s		0.000s
10.1.4.1		10.1.8.1		10.1.8.2		3         	10        	0.001s		5.000s
10.1.4.2		10.1.8.1		10.1.8.2		2         	8         	0.001s		5.000s
10.1.5.1		10.1.8.1		10.1.8.2		2         	10        	15.022s		5.000s
10.1.5.2		10.1.8.1		10.1.8.2		1         	10        	15.022s		5.000s
10.1.6.1		10.1.8.1		10.1.8.2		2         	12        	0.001s		5.000s
10.1.6.2		10.1.8.1		10.1.8.2		1         	10        	15.022s		5.000s
10.1.7.1		10.1.8.1		10.1.8.2		2         	8         	0.001s		5.000s
10.1.7.2		10.1.8.1		10.1.8.2		1         	10        	15.022s		5.000s
10.1.8.1		10.1.8.1		10.1.8.2		1         	10        	0.019s		5.000s
10.1.8.255		10.1.8.255		10.1.8.2		0         	12        	-9223371961.763s		0.000s
127.0.0.1		127.0.0.1		127.0.0.1		0         	0         	-9223371961.763s		0.000s

Node: 6	 Time: 90.071	s 	SendPeriodicUpdate

DSDV Routing table
Destination		Gateway		Interface		HopCount		SeqNum		LifeTime		SettlingTime
10.1.1.1		10.1.8.1		10.1.8.2		4         	12        	14.980s		5.000s
10.1.1.2		10.1.8.1		10.1.8.2		3         	10        	14.980s		5.000s
10.1.2.1		10.1.8.1		10.1.8.2		3         	10        	14.980s		5.000s
10.1.2.2		10.1.8.1		10.1.8.2		2         	12        	14.980s		5.000s
10.1.3.1		10.1.8.1		10.1.8.2		3         	10        	14.980s		5.000s
10.1.3.2		10.1.8.1		10.1.8.2		2         	12        	14.980s		0.000s
10.1.4.1		10.1.8.1		10.1.8.2		3         	10        	14.980s		5.000s
10.1.4.2		10.1.8.1		10.1.8.2		2         	8         	14.980s		5.000s
10.1.5.1		10.1.8.1		10.1.8.2		2         	12        	14.980s		5.000s
10.1.5.2		10.1.8.1		10.1.8.2		1         	12        	14.980s		5.000s
10.1.6.1		10.1.8.1		10.1.8.2		2         	12        	14.980s		5.000s
10.1.6.2		10.1.8.1		10.1.8.2		1         	12        	14.980s		5.000s
10.1.7.1		10.1.8.1		10.1.8.2		2         	8         	14.980s		5.000s
10.1.7.2		10.1.8.1		10.1.8.2		1         	12        	14.980s		5.000s
10.1.8.1		10.1.8.1		10.1.8.2		1         	12        	14.980s		5.000s
10.1.8.255		10.1.8.255		10.1.8.2		0         	12        	-9223371946.784s		0.000s
127.0.0.1		127.0.0.1		127.0.0.1		0         	0         	-9223371946.784s		0.000s

Node: 6	 Time: 90.076	s 	SendTriggeredUpdate

DSDV Routing table
Destination		Gateway		Interface		HopCount		SeqNum		LifeTime		SettlingTime
10.1.1.1		10.1.8.1		10.1.8.2		4         	12        	14.985s		5.000s
10.1.1.2		10.1.8.1		10.1.8.2		3         	10        	14.985s		5.000s
10.1.2.1		10.1.8.1		10.1.8.2		3         	10        	14.985s		5.000s
10.1.2.2		10.1.8.1		10.1.8.2		2         	12        	14.985s		5.000s
10.1.3.1		10.1.8.1		10.1.8.2		3         	10        	14.985s		5.000s
10.1.3.2		10.1.8.1		10.1.8.2		2         	12        	14.985s		0.000s
10.1.4.1		10.1.8.1		10.1.8.2		3         	10        	14.985s		5.000s
10.1.4.2		10.1.8.1		10.1.8.2		2         	8         	14.985s		5.000s
10.1.5.1		10.1.8.1		10.1.8.2		2         	12        	14.985s		5.000s
10.1.5.2		10.1.8.1		10.1.8.2		1         	12        	14.985s		5.000s
10.1.6.1		10.1.8.1		10.1.8.2		2         	12        	14.985s		5.000s
10.1.6.2		10.1.8.1		10.1.8.2		1         	12        	14.985s		5.000s
10.1.7.1		10.1.8.1		10.1.8.2		2         	8         	14.985s		5.000s
10.1.7.2		10.1.8.1		10.1.8.2		1         	12        	14.985s		5.000s
10.1.8.1		10.1.8.1		10.1.8.2		1         	12        	0.001s		5.000s
10.1.8.255		10.1.8.255		10.1.8.2		0         	14        	-9223371946.779s		0.000s
127.0.0.1		127.0.0.1		127.0.0.1		0         	0         	-9223371946.779s		0.000s

Node: 6	 Time: 90.084	s 	SendTriggeredUpdate

DSDV Routing table
Destination		Gateway		Interface		HopCount		SeqNum		LifeTime		SettlingTime
10.1.1.1		10.1.8.1		10.1.8.2		4         	12        	14.993s		5.000s
10.1.1.2		10.1.8.1		10.1.8.2		3         	10        	14.993s		5.000s
10.1.2.1		10.1.8.1		10.1.8.2		3         	10        	14.993s		5.000s
10.1.2.2		10.1.8.1		10.1.8.2		2         	12        	14.993s		5.000s
10.1.3.1		10.1.8.1		10.1.8.2		3         	10        	14.993s		5.000s
10.1.3.2		10.1.8.1		10.1.8.2		2         	12        	14.993s		0.000s
10.1.4.1		10.1.8.1		10.1.8.2		3         	10        	14.993s		5.000s
10.1.4.2		10.1.8.1		10.1.8.2		2         	8         	14.993s		5.000s
10.1.5.1		10.1.8.1		10.1.8.2		2         	12        	14.993s		5.000s
10.1.5.2		10.1.8.1		10.1.8.2		1         	12        	14.993s		5.000s
10.1.6.1		10.1.8.1		10.1.8.2		2         	12        	14.993s		5.000s
10.1.6.2		10.1.8.1		10.1.8.2		1         	12        	14.993s		5.000s
10.1.7.1		10.1.8.1		10.1.8.2		2         	8         	14.993s		5.000s
10.1.7.2		10.1.8.1		10.1.8.2		1         	12        	14.993s		5.000s
10.1.8.1		10.1.8.1		10.1.8.2		1         	12        	0.000s		5.000s
10.1.8.255		10.1.8.255		10.1.8.2		0         	14        	-9223371946.770s		0.000s
127.0.0.1		127.0.0.1		127.0.0.1		0         	0         	-9223371946.770s		0.000s

Node: 6	 Time: 90.086	s 	SendTriggeredUpdate

DSDV Routing table
Destination		Gateway		Interface		HopCount		SeqNum		LifeTime		SettlingTime
10.1.1.1		10.1.8.1		10.1.8.2		4         	12        	14.995s		5.000s
10.1.1.2		10.1.8.1		10.1.8.2		3         	14        	0.002s		5.000s
10.1.2.1		10.1.8.1		10.1.8.2		3         	14        	0.002s		5.000s
10.1.2.2		10.1.8.1		10.1.8.2		2         	12        	14.995s		5.000s
10.1.3.1		10.1.8.1		10.1.8.2		3         	14        	0.002s		5.000s
10.1.3.2		10.1.8.1		10.1.8.2		2         	12        	14.995s		0.000s
10.1.4.1		10.1.8.1		10.1.8.2		3         	14        	0.002s		5.000s
10.1.4.2		10.1.8.1		10.1.8.2		2         	8         	14.995s		5.000s
10.1.5.1		10.1.8.1		10.1.8.2		2         	12        	14.995s		5.000s
10.1.5.2		10.1.8.1		10.1.8.2		1         	12        	14.995s		5.000s
10.1.6.1		10.1.8.1		10.1.8.2		2         	12        	14.995s		5.000s
10.1.6.2		10.1.8.1		10.1.8.2		1         	12        	14.995s		5.000s
10.1.7.1		10.1.8.1		10.1.8.2		2         	8         	14.995s		5.000s
10.1.7.2		10.1.8.1		10.1.8.2		1         	12        	14.995s		5.000s
10.1.8.1		10.1.8.1		10.1.8.2		1         	12        	0.001s		5.000s
10.1.8.255		10.1.8.255		10.1.8.2		0         	14        	-9223371946.769s		0.000s
127.0.0.1		127.0.0.1		127.0.0.1		0         	0         	-9223371946.769s		0.000s

Node: 6	 Time: 90.093	s 	SendTriggeredUpdate

DSDV Routing table
Destination		Gateway		Interface		HopCount		SeqNum		LifeTime		SettlingTime
10.1.1.1		10.1.8.1		10.1.8.2		4         	12        	15.002s		5.000s
10.1.1.2		10.1.8.1		10.1.8.2		3         	14        	0.009s		5.000s
10.1.2.1		10.1.8.1		10.1.8.2		3         	14        	0.009s		5.000s
10.1.2.2		10.1.8.1		10.1.8.2		2         	12        	15.002s		5.000s
10.1.3.1		10.1.8.1		10.1.8.2		3         	14        	0.009s		5.000s
10.1.3.2		10.1.8.1		10.1.8.2		2         	14        	0.008s		0.000s
10.1.4.1		10.1.8.1		10.1.8.2		3         	14        	0.009s		5.000s
10.1.4.2		10.1.8.1		10.1.8.2		2         	8         	15.002s		5.000s
10.1.5.1		10.1.8.1		10.1.8.2		2         	12        	15.002s		5.000s
10.1.5.2		10.1.8.1		10.1.8.2		1         	12        	15.002s		5.000s
10.1.6.1		10.1.8.1		10.1.8.2		2         	14        	0.008s		5.000s
10.1.6.2		10.1.8.1		10.1.8.2		1         	12        	15.002s		5.000s
10.1.7.1		10.1.8.1		10.1.8.2		2         	8         	15.002s		5.000s
10.1.7.2		10.1.8.1		10.1.8.2		1         	12        	15.002s		5.000s
10.1.8.1		10.1.8.1		10.1.8.2		1         	12        	0.001s		5.000s
10.1.8.255		10.1.8.255		10.1.8.2		0         	14        	-9223371946.762s		0.000s
127.0.0.1		127.0.0.1		127.0.0.1		0         	0         	-9223371946.762s		0.000s

Node: 6	 Time: 90.094	s 	SendTriggeredUpdate

DSDV Routing table
Destination		Gateway		Interface		HopCount		SeqNum		LifeTime		SettlingTime
10.1.1.1		10.1.8.1		10.1.8.2		4         	14        	0.000s		5.000s
10.1.1.2		10.1.8.1		10.1.8.2		3         	14        	0.000s		5.000s
10.1.2.1		10.1.8.1		10.1.8.2		3         	14        	0.000s		5.000s
10.1.2.2		10.1.8.1		10.1.8.2		2         	14        	0.000s		5.000s
10.1.3.1		10.1.8.1		10.1.8.2		3         	14        	0.000s		5.000s
10.1.3.2		10.1.8.1		10.1.8.2		2         	14        	0.000s		0.000s
10.1.4.1		10.1.8.1		10.1.8.2		3         	14        	0.000s		5.000s
10.1.5.1		10.1.8.1		10.1.8.2		2         	14        	0.000s		5.000s
10.1.5.2		10.1.8.1		10.1.8.2		1         	12        	15.002s		5.000s
10.1.6.1		10.1.8.1		10.1.8.2		2         	14        	0.000s		5.000s
10.1.6.2		10.1.8.1		10.1.8.2		1         	12        	15.002s		5.000s
10.1.7.2		10.1.8.1		10.1.8.2		1         	12        	15.002s		5.000s
10.1.8.1		10.1.8.1		10.1.8.2		1         	12        	0.001s		5.000s
10.1.8.255		10.1.8.255		10.1.8.2		0         	14        	-9223371946.761s		0.000s
127.0.0.1		127.0.0.1		127.0.0.1		0         	0         	-9223371946.761s		0.000s

